﻿{
	"INGLESINA": ["CLASSICA", "VITTORIA",
		"OTUTTO DELUXE", "TRILOGY", "QUAD", "ZIPPY PRO", "SOFIA", "SWIFT",
		"ZIPPY LIGHT", "QUAD STROLLER", "TRILOGY STROLLER", "ESPRESSO", "TRIP", "NET",
		"TWIN SWIFT", "FAST", "GUSTO", "ZUMA", "BRUNCH", "MY BABY BAG", "TRILOGY BAG",
		"TRILOGY SYSTEM", "MARCO POLO", "AMERIGO", "HUGGY MULTIFIX", "GALILEO I", "PRIME", "FRONT"
	],
	"PAMPERS": ["FRESH CLEAN", "ACTIVE BABY-DRY", "NEW BABY-DRY", "SENSITIVE",
		"NEW BABY SENSITIVE", "PREMIUM CARE", "PANTS", "BABY FRESH CLEAN", "NATURAL CLEAN", "SLEEP&PLAY"
	],
	"COROL": ["S1", "S2", "S3", "S4", "S5", "S6"],
	"RIKO": ["BALERINA", "RACER PDL", "NIKI"],
	"SIMPLEPARENTING": ["DOONA"],
	"FD-DESIGN": [
		"LINGO 4S", "VIPER 4S", "MAMBA", "ZOOM", "AVITO", "PRAMY LUXE", "COBRA", "3 TEC"
	],
	"BART-PLAST": ["PLATINUM"],
	"BABYHIT": ["DRIVE", "RAINBOW"],
	"DIONO": ["MONTEREY 2"],
	"CONCORD": [
		"TRANSFORMER XT PRO", "TRANSFORMER X BAG", "TRANSFORMER PRO", "TRANSFORMER XT",
		"TRANSFORMER T", "ABSORBER XT", "ULTIMAX", "AIR", "WANDERER TRAVEL SET",
		"SLEEPER 2 0", "HUG DRIVING", "ULTIMAX 3", "WANDERER", "AIR SAFE", "SUNSHINE", "SCOUT", "NEO"
	],
	"GLORY": ["COMFORT", "1109"],
	"BRITAX": [
		"RÖMER KIDFIX II XP SICT", "RÖMER FIRST CLASS PLUS", "RÖMER EVOLVA 123 PLUS",
		"RÖMER KIDFIX XP SICT", "RÖMER KIDFIX SL SICT", "RÖMER DISCOVERY SL", "RÖMER SAFEFIX PLUS",
		"RÖMER KIDFIX II XP", "RÖMER KING II ATS", "RÖMER KING II LS", "RÖMER KIDFIX XP",
		"RÖMER KING II", "RÖMER TRIFIX", "RÖMER PRIMO", "B MOTION 4", "B AGILE 4",
		"RÖMER KING II ATS TRENDLINE", "RÖMER ADVANSAFIX II SICT", "RÖMER KID II"
	],
	"DISNEY": [
		"BELINE SP", "COSMO SP", "DREAM", "TOPO"
	],
	"VALCO BABY": [
		"BASSINET ДЛЯ SNAP DUO", "SPORT PACK ДЛЯ SNAP", "ALL SORTS SEAT PAD", "SNAP 4 TAILORMADE", "SNAP TAILORMADE", "ZEE SPARK DUO",
		"VOGUE HOOD", "ZEE SPARK", "SNAP 4", "SNAP", "ZEE"
	],
	"CASUALPLAY": [
		"JAZZ REVERSE FOLK", "STWINNER S4", "LOOP", "BABY ZERO PLUS", "MULTIPROTECTOR FIX", "FOOTMUFF", "BEAT S",
		"WAVE"
	],
	"FD DESIGN": [
		"VIPER 4S","LINGO 4S","TREVISO","MAMBA","ZOOM"
	],
	"CHICCO": [
		"SIMPLICITY PLUS", "QUASAR PLUS 2", "QUASAR PLUS 3", "OASYS 1 ISOFIX", "X PACE ISOFIX", "AUTO FIX FAST",
		"GROUP 1", "GROUP 2", "GROUP 3", "ELETTA 0", "ELETTA 1", "OASYS 1", "OASYS 2", "OASYS 3", "TRIO LOVE",
		"LITE WAY", "MULTIWAY", "GO NEW", "URBAN", "SIMPLICITY PLUS TOP", "GO ONE ISOFIX", "OASYS 2-3", "GO ONE",
		"ELETTA COMFORT", "QUASAR PLUS"
	],
	"CAM": ["VIAGGIOSICURO ISOFIX", "TRAVEL EVOLUTION", "FLIP", "MET", "AUTO GARA", "REGOLO"],
	"MAXI-COSI": [
		"RODI AIRPROTECT", "PEBBLE PLUS", "2WAYPEARL", "AXISSFIX", "PEBBLE", "AXISS",
		"CABRIOFIX", "2WAYPEARL CONFETTI", "PEARL", "TOBI", "RUBI", "OPAL", "TOBI CROSSED LINES"
		],
	"HOCO": ["SUPERFOLD", "BIRDIE", "MAGIC", "COMBI"],
	"BABYBJORN": ["ONE COTTON NEW", "ONE OUTDOORS", "ONE AIR NEW"],
	"GEOBY": ["C705 X", "C539KR", "BABY", "05C601H", "05C703H", "C819R01", "C3018R", "CS906F"],
	"BABY STREET": ["DAFFODIL", "MYRTLE", "DAISY"],
	"WELLDON": [
		"BS03 T8", "ENCORE", "BS03 T", "TITAT", "ROYAL", "PG05", "БАХИЛЫ FOR LADY",
		"DIADEM ISO FIX", "ROYAL BABY 2", "SMART SPORT", "ROYAL BABY"
	],
	"HARTAN": ["SPRINT GT", "VIP XL"],
	"SELBY": ["FREEDOM"],
	"PEG-PEREGO": [
		"PLIKO P3 COMPACT CLASSICO", "PLIKO MINI CLASSICO", "VIAGGIO 2 3 SUREFIX", "BOOK COMPLETO MOD",
		"PRIMO VIAGGIO SL", "SI COMPLETO", "BOOK CROSS", "PLIKO P3", "VIAGGIO DUO FIX K", "BOOK PLUS PURE",
		"PLIKO MINI", "BOOK CROSS", "BOOK", "BOOK COMPLETO"
	],
	"NUNA": ["PEPP LUX", "REBL"],
	"BABYTON": [
		"NORD FIX ART LUX", "COMFORT FIX ECO", "COCOON TRAVEL", "NILS LUX ART", "NORD FIX LUX", "COMFORT FIX", "SMART ART",
		"PILOT ART", "OSCAR ART", "BONY ART", "ARGO FIX", "ZERO LUX", "NILS LUX", "PILLO OX", "NORD LUX", "OPTIMUS", "BLUME",
		"SMART", "WOLKE", "DIZZY", "MELLY", "BONY", "A01", "N40", "E80"
	],
	"BUMBLERIDE": ["INDIE 4", "INDIE"],
	"CYBEX": [
		"FIRST GO", "PALLAS M", "SIRONA", "TOPAZ", "ONYX", "SOLUTION Q2 FIX", "HORA", "SORS", "SOLUTION",
		"ATON Q PLUS", "JUNO 2 FIX", "PALLAS", "ISIS FIX", "ATON Q", "NONA", "LUA", "CALLISTO", "SIRONA",
		"SIRONA PLUS", "ATON"
	],
	"GRACO": [
		"LOGICO LX COMFORT", "NAUTILUS 3 IN 1", "JUNIOR MAXI 15", "BOOSTER", "ASSURE", "MIRAGE", "AFFIX",
		"BASIC BOOSTER", "MILESTONE", "MODES"

	],
	"HAUCK": [
		"LIFT UP 4", "VIPER SLX", "MALIBU XL", "MIAMI 3", "SPRINT", "SPORT", "TORRO", "SPEED PLUS", 
		"LIMA T13", "MALIBU", "ROMA", "CITI CI 13"
	],
	"ADBOR": ["MARSEL CLASSIC", "ZIPP", "MIO"],
	"GREENTOM": ["UPP CLASSIC"],
	"CLEK": ["OLLI"],
	"SEED": ["SPEED"],
	"BREVI": [
		"POD 015", "BOOMERANG 715", "MARATHON 763", "CRYSTAL 718", "ASTON B FIX",
		"BOOMERANG", "MARATHON", "GP SPORT", "CRYSTAL"
	],
	"APRICA": ["MAGICAL AIR", "FLYLE", "SMOOVE", "STICK", "AIR RIA LUX", "SORARIA", "STICK PLUS"],
	"MAC BY MACLAREN": ["M 02", "M 01"],
	"SLARO": ["PICCOLO", "SPAROW", "ROCKY", "DRACO", "SOFIA", "PICCOLO DUO"],
	"LEADER KIDS": [
		"BABY LEADER COMFORT", "КАРАВЕЛ ISOFIX", "EGIDA LUX", "АТЛАНТИК", "КАРАВЕЛ", "ГАЛЕОН", "ФЛЕЙТ", "RALLY", "СОФТ"
	],
	"ASALVO": ["TRIBECA", "HIPSTER", "IBIZA"],
	"MR SANDMAN": ["TRAVELER", "VOYAGE", "GUARDIAN"],
	"VIKALEX": ["COCHINELLA", "FERRONE", "RAVELLA", "TASSO", "GRATA", "PORTA VITA"],
	"CARMATE": ["SARATTO HIGHBACK JUNIOR QUATTRO"],
	"PRAMPOL": ["LUCIA NEW", "PANDA"],
	"SPORT BABY": ["BOAT"],
	"HAPPY BABY": [
		"BOOSTER RIDER", "RIDER DELUXE", "GELIOS V2", "PASSENGER", "ELEGANZA", "CROSSBY", 
		"SKYLER", "ULTIMA", "JETTA", "NEON SPORT"
	],
	"RUDIS": ["SIBIS", "PLUS", "SOLO", "SIBIS DIMOND", "SIBIS STYLE", "LIFE", "SIBIS LEATHER", "SIBIS EXCLUSIVE"],
	"BOB": ["SPORT UTILITY STROLLER", "REVOLUTION PRO"],
	"NOORDLINE": ["BEATRICE CLASSIC", "EDEL CLASSIC"],
	"EXPANDER": ["MONDO"],
	"BEBE CONFORT": ["PEBBLE"],
	"BABY JOGGER": ["CITY"],
	"TEUTONIA": ["MISTRAL PRIMUS V4", "BEYOU V4 ELITE", "MISTRAL S V4", "COSMO V4", "BLISS"],
	"RECARO": ["MONZA NOVA 2 SEATFIX", "YOUNG SPORT HERO", "ZERO 1", "PRIVIA", "OPTIA"],
	"MARIMEX": ["ARMEL", "SPORT", "JAS", "ROSS", "CLASSIC", "VITO", "JOKER", "TESSO"],
	"GB": ["QBIT"],
	"NANIA": ["TOPO COMFORT", "DREAM"],
	"FOPPAPEDRETTI": ["3 CHIC TRAVEL SYSTEM", "BIKINI TRAVEL SYSTEM",
		"MYO TRAVEL SYSTEM", "GIRASOLE MY", "PASSENGER", "RE KLINO", "BABYROAD",
		"FOLDING", "TOKIO", "BUS"
	],
	"NASTELLA": ["CLASSIC ONE", "LUXE"],
	"ADAMEX": [
		"CHAMPION ALU DELUXE", "BARLETTA RAINBOW", "ASPENA RAINBOW",
		"ASPENA DELUXE", "ALEX DELUXE", "ASPENA ECO", "BARLETTA", "GLORIA", "ASPENA", "AVILA", "LARA"
	],
	"TIZO": ["GRAND", "START"],
	"BEBE-MOBILE": ["TOSCANA"],
	"MAXI COSI": [
		"RODI FIX AIR PROTECT", "ЧЕХОЛ ДЛЯ АВТОКРЕСЛА", "RODI AIR PRO", "AXISS FIX",
		"2WAYPEARL", "MILO FIX", "PEBBLE", "OPAL"
	],
	"MACLAREN": ["GLOBETROTTER", "VOLO", "TECHNO XT"],
	"BABYHOME": ["EMOTION", "VIDA"]
}
