﻿{
  "Цвет": {
    "INPUT": [
	"Astral",
	"Fuego",
	"Black Series Green Marble Highline",
	"Black Marble",
	"Black Series Ocean Blue Trendline",
	"Black Series Mineral Purple Trendline",
	"Бук",
	"Ваниль",
	"Орех",
	"Берёза",
	"BLOOM RED",
	"MOD RED",
      "Мультиколор",
      "СВЕТЛЫЙ",
      "СЛОНОВАЯ КОСТЬ",
      "ТЕМНЫЙ",
      "RJPH",
      "04/Синий",
      "Коричнево-Бежевая",
      "Серо-Бирюзовая",
      "Шоколад",
      "Coal Black",
      "Classic Breton",
      "голубой/белый",
      "Fresh Olive",
      "Графит/Голубой",
      "Графит/Сиреневый",
      "Графит/Фиолетоый",
      "Темно-Бежевый/Бежевый",
      "Темно-Фиолетовый/Светло-Фиолетовый",
      "Персиковая",
      "Бежевый/Шоколад",
      "Rusty Orange 2015",
      "EL-2",
      "EL-1",
      "SLC-9",
      "SLC-2",
      "SLC-6",
      "M-6",
      "R-8",
      "R-4",
      "R-1",
      "S-7",
      "S-15",
      "S-9",
      "Brownie",
      "Animals",
      "Peanut",
      "malibu",
      "Lavender",
      "бирюзовая со звёздами",
      "белый/графит",
      "графит",
      "серый/графит/красный",
      "графит/оранжевый",
      "желтый/графит",
      "sequential",
      "26 синий-голубой",
      "24 синий-аквамарин",
      "30 бежевый",
      "RZSS",
      "caviar/almond",
      "14 розовый",
      "12 корич-беж",
      "13 беж-корич",
      "бежевый/белый",
      "245",
      "244",
      "243",
      "953",
      "S10",
      "чикко",
      "10 темно-фиолетовый",
      "графит+зеленый принт",
      "ALMOND BEIGE",
      "ALUMINIUM",
      "ALUMINUM GREY",
      "AMARENA",
      "ANTHRACITE",
      "ANTIGUA BLUE",
      "AQUA",
      "ARGENTO",
      "ASCOT",
      "ASPHALT",
      "AUTUMN GOLD",
      "BARDE",
      "BEAR TRAIL",
      "BEIGE",
      "BEIGE DIAMOND",
      "BERRY RED",
      "BETULLA",
      "BLACK",
      "BLACK CRYSTAL",
      "BLACK FRAME GREY",
      "BLACK GREEN",
      "BLACK MARBLE",
      "BLACK RAVEN",
      "BLACK RED",
      "BLACK SEA",
      "BLACK TURQUOISE",
      "BLACK/APPLE",
      "BLACK/BLUEBIRD",
      "BLACK/GREEN",
      "BLACK/MARIGOLD",
      "BLACK/MOSS",
      "BLACK/ORANGE",
      "BLACK/PERSICIA",
      "BLACK/REDSTONE",
      "BLACK/SILVER",
      "BLACK/WHITE",
      "BLU-AZZURRO",
      "BLUE",
      "BLUE DENIM",
      "BLUE DIAMOND",
      "BLUE MOON",
      "BLUE STARDUST",
      "BLUE/GREY",
      "BORDEAUX",
      "BORDO",
      "BOREAL",
      "BROWN",
      "CACAO",
      "CAFE LATE",
      "CAFFE",
      "CANDY PINK",
      "CAPPUCCINO",
      "CARBON",
      "CARBON BLACK",
      "CAVIAR",
      "CAVIAR/CAPRI",
      "CAVIAR/SILVER",
      "CHARCOAL",
      "CHERRY",
      "CHILI PEPPER",
      "CHOCO",
      "CHOCO AND TAUPE",
      "CHOCO TAUPE",
      "CHOCOLATE",
      "CITADE/SILVER",
      "CLASSIC BLACK",
      "CLOUD",
      "COAL",
      "COFFEE BEAN",
      "COMIC",
      "CONCRETE GREY",
      "COOL BEIGE",
      "COOL BEIGE",
      "COOL GREY",
      "COOPER",
      "CORAL",
      "COSMOS BLACK",
      "CREAM",
      "CREME",
      "DAKAR SEND",
      "DALIA",
      "DAMSON",
      "DARK BLUE - BLUE",
      "DARK GREY - GREEN",
      "DARK MAROON",
      "DENIM",
      "DENIM BLUE",
      "DESERT DUNE",
      "DIABLO",
      "DIGITAL BLACK",
      "DRAGONFIRE RED",
      "DUNE",
      "E-MAIL BLUE",
      "EARTH BROWN",
      "ECO BLUE",
      "ECO BROWN",
      "ECO WHITE",
      "EUCALYPTUS",
      "FASHION MAGENTA",
      "FIRE",
      "FISHBONE RED",
      "FLAME RED",
      "FLAMINGO",
      "FOREST",
      "FUSION BLACK",
      "GARNET",
      "GHAPPY BLACK",
      "GIRAFFE TALK",
      "GOLF GREEN",
      "GRAFITE",
      "GRAPE",
      "GRAPE JUICE",
      "GRAPHITE GREY",
      "GRAY",
      "GRAY RABBIT",
      "GREEN",
      "GREEN LILLY",
      "GREEN MARBLE",
      "GREENFOREST",
      "GREY",
      "GREY - PINK",
      "GREY BLACK",
      "GREY GRAVEL",
      "GREY MELANGE",
      "GREY-BEIGE",
      "GREY-BLUE",
      "GREY-LT.GREEN",
      "GREY-PURPLE",
      "GREY-RED",
      "GREY/BLACK",
      "GREY/GREEN",
      "GREY/RED",
      "GUNMETAL",
      "HAPPY BLACK",
      "HAWAII",
      "HONEY",
      "HOT SPICY",
      "IBIZA",
      "INDIGO BUZZ",
      "INDY RED",
      "INKY JADE",
      "INTENSE RED",
      "INTO THE WOODS",
      "IVORY",
      "JADE",
      "JEAN",
      "JEANS",
      "JUNGLE GREEN",
      "JUTA",
      "KANDI",
      "KHAKI",
      "KLEIN",
      "LAGOON GREEN",
      "LAPIS LAZUL",
      "LAVA ROCK",
      "LEATHER BROWN",
      "LEATHER CAPPUCCINO",
      "LEATHER GREY",
      "LEATHER ORANGE",
      "LEATHER RED",
      "LEATHER WHITE",
      "LICORICE",
      "LIGHT GREY",
      "LIGHT/GREY BLACK",
      "LIME",
      "LIMESTONE",
      "LINEN GREY",
      "LION",
      "MANHATT GREY",
      "MANHATTAN GREY",
      "MARINA",
      "MARINE",
      "MAROON",
      "MARS RED",
      "MEDIEVAL BLUE/FESTIVAL АUCHSIA",
      "MIDNIGHT BLACK",
      "MINERAL GREY",
      "MINERAL LILAC",
      "MINERAL PURPLE",
      "MINT GREY",
      "MINT/GREY",
      "MISTRAL",
      "MOCHA BROWN",
      "MOON",
      "MOON DUST",
      "MOONLIGHT",
      "MOSAIC BLUE",
      "MULTICOLOR",
      "MULTICOLOUR",
      "NATURAL",
      "NAVY",
      "NAVY BLUE",
      "NAVY/WHITE",
      "NEVY",
      "NEVY BLUE",
      "OCEAN",
      "OCEAN BLUE",
      "OLIVA KHAKI",
      "ORANGE",
      "ORANGE КUST/MEDIEVAL BLUE",
      "ORANGE/BLACK",
      "ORIGAMI BLACK",
      "ORIGAMI RED",
      "OUTBACK",
      "OYSTER",
      "PAPRIKA",
      "PEACOAT",
      "PEARL ATLANTIC",
      "PERFOMANCE BLACK",
      "PETROL",
      "PETROL/WHITE",
      "PHANTOM",
      "PHANTOM GREY",
      "PHANTUM BLACK",
      "PINK",
      "PINK DIAMOND",
      "PINK FLOWER",
      "PLATINO",
      "PLUM",
      "POP BLACK",
      "POP BLUE",
      "POP PINK",
      "POSH PINK",
      "POSITANO",
      "POWER BERRY",
      "PRINCESS PINK",
      "PRINTED GREY",
      "PRINTED ORANGE",
      "PROVENCE",
      "PURE BLACK",
      "PURPLE",
      "PURPLE RAIN",
      "RASPBERRY",
      "RASPBERRY PINK",
      "RAVEN BLACK",
      "REBEL",
      "RED",
      "RED GREY",
      "RED MANIA",
      "RED ORANGE",
      "RED WAVE",
      "RIVER BLUE",
      "ROSE PINK",
      "ROSSO",
      "ROUGE",
      "ROYAL BLUE",
      "ROYAL NAVY",
      "RUBY",
      "RUBY RED",
      "RUSTY ORANGE",
      "SABBIA",
      "SAND",
      "SAND BEIGE",
      "SCARLET",
      "SEA PINE",
      "SEA PORT BLUE",
      "SHADOW",
      "SILKY BEIGE",
      "SILVER",
      "SILVER BLACK",
      "SKY",
      "SLIM/LIGHT GREY",
      "SMART ZEBRA",
      "SOLID GREY",
      "SPARKLING GREY",
      "SPRING ARANCIO-BEIGE",
      "STEEL GREY",
      "STONE GREY",
      "STRAWBERRY",
      "STREET",
      "STRUCTURE GREY",
      "SUNSHINE",
      "SUNSHINE YELLOW",
      "SWEET CANDY",
      "SWEET CURRY",
      "TANK",
      "TECHNICAL GREY",
      "TERRA",
      "TOMATO RED",
      "TORTORA",
      "TRAFFIC SIGN",
      "TRIANGLE FLOW",
      "TRUE BLUE",
      "VIOLET",
      "VIOLET SYRUP",
      "VIOLETGUNGLE",
      "VIVID RED",
      "WALNUT BROWN",
      "WATERCOLOUR BLUE",
      "WHITE",
      "WILDERNESS",
      "WINTER DAY",
      "WINTER NIGHT",
      "WINTER SUNSET",
      "WOOD BROWN",
      "WOODS",
      "XENON BLUE",
      "YELLOW GREY",
      "YELLOW/GREY",
      "ZEBRA",
      "АКВА",
      "АКВАМАРИН",
      "БАНАНОВЫЙ",
      "БЕЖЕВЫЙ",
      "БЕЖЕВАЯ",
      "БЕЖЕВОЕ",
      "БЕЖЕВЫЙ/ГОЛУБОЙ",
      "БЕЖЕВЫЙ/КОРИЧНЕВЫЙ",
      "БЕЖЕВЫЙ/КРАСНЫЙ",
      "БЕЖЕВЫЙ/РОЗОВЫЙ",
      "БЕЖЕВЫЙ/СЕРЫЙ",
      "БЕЖЕВЫЙ/СИНИЙ",
      "БЕЖЕВЫЙ/ЧЕРНЫЙ",
      "БЕЛЫЙ",
      "БЕЛАЯ",
      "БЕЛАЯ И ЗЕЛЕНАЯ",
      "БЕЛО-БЕЖЕВАЯ",
      "БЕЛОЕ",
      "БЕЛЫЙ/БЕЖЕВЫЙ",
      "БЕЛЫЙ/БИРЮЗОВЫЙ",
      "БЕЛЫЙ/БИРЮЗОВЫЙ/БАБОЧКИ",
      "БЕЛЫЙ/ГРАФИТ/БАБОЧКИ",
      "БЕЛЫЙ/ЗЕЛЕНЫЙ",
      "БЕЛЫЙ/КОРАЛЛОВЫЙ",
      "БЕЛЫЙ/КРАСНЫЙ",
      "БЕЛЫЙ/ПРОЗРАЧНЫЙ",
      "БЕЛЫЙ/РОЗОВЫЙ",
      "БЕЛЫЙ/СЕРЫЙ",
      "БЕЛЫЙ/СЕРЫЙ/ЧЕРНЫЙ",
      "БЕЛЫЙ/СИНИЙ",
      "БИРЮЗА/СЕРЫЙ",
      "БИРЮЗОВЫЙ",
      "БИРЮЗОВЫЙ/СЕРЫЙ",
      "БОРДОВЫЙ",
      "БРОНЗОВЫЙ",
      "ВЕСЕННИЙ ЛАЙМ",
      "ГОЛУБОЙ",
      "ГОЛУБАЯ",
      "ГОЛУБОЕ",
      "ГОЛУБОЙ/СЕРЫЙ",
      "ГОЛУБОЙ/СИНИЙ",
      "ГРАФИТ/БЕЛЫЙ",
      "ГРАФИТ/ЧЕРНЫЙ",
      "ДЖИНС/КРАСНЫЙ",
      "ЕЖЕВИЧНЫЙ",
      "ЖЕЛТЫЙ",
      "ЖЕЛТЫЙ/БЕЛЫЙ",
      "ЖЕЛТЫЙ/СЕРЫЙ",
      "ЖЕЛТЫЙ С РОЗОВЫМ",
      "ЖЕЛТО-СИНИЙ",
      "ЗЕЛЕНЫЙ",
      "ЗЕЛЕНАЯ",
      "ЗЕЛЕНОЕ",
      "ЗЕЛЕНЫЙ/БЕЛЫЙ",
      "ЗЕЛЕНЫЙ/СЕРЫЙ",
      "ЗЕЛЕНЫЙ/ЧЕРНЫЙ",
      "ЗОЛОТО/ПШЕНО",
      "ИЗУМРУДНЫЙ/СЕРЫЙ",
      "КИРПИЧНЫЙ",
      "КОРАЛЛОВЫЙ",
      "КОРАЛЛОВЫЙ/ЧЕРНЫЙ",
      "КОРИЧНЕВЫЙ",
      "КОРИЧНЕВАЯ",
      "КОРИЧНЕВОЕ",
      "КОРИЧНЕВЫЙ/БЕЖЕВЫЙ",
      "КОРИЧНЕВЫЙ/РИСУНОК ЖИРАФ",
      "КОРИЧНЕВЫЙ/САЛАТОВЫЙ",
      "КРАСНЫЙ",
      "КРАСНАЯ",
      "КРАСНОЕ",
      "КРАСНЫЙ/БОРДОВЫЙ",
      "КРАСНЫЙ/ПОЛОСКИ",
      "КРАСНЫЙ/РОЗОВЫЙ",
      "КРАСНЫЙ/СВЕТЛО СЕРЫЙ/ЧЕРНЫЙ",
      "КРАСНЫЙ/СЕРО-БЕЛЫЙ",
      "КРАСНЫЙ/СЕРЫЙ",
      "КРАСНЫЙ/СИНИЙ",
      "КРАСНЫЙ/ЧЕРНЫЙ",
      "КРЕМОВЫЙ",
      "КРЕМОВЫЙ/СЕРЫЙ МЕХ",
      "ЛАЗУРНЫЙ",
      "ЛАЙМ",
      "ЛИЛОВЫЙ",
      "МАЛИНОВЫЙ",
      "МАЛИНОВЫЙ/КРАСНЫЙ",
      "МИКС",
      "ОЛИВА",
      "ОРАНЖЕВЫЙ",
      "ОРАНЖЕВЫЙ/РОЗОВЫЙ",
      "ОРАНЖЕВЫЙ/СЕРЫЙ",
      "ПРОЗРАЧНЫЙ",
      "ПШЕНИЧНЫЙ",
      "РОЗОВЫЙ",
      "РОЗОВЫЙ/РИСУНОК КРУГИ",
      "РОЗОВЫЙ/СЕРЫЙ",
      "СHOCOLATE",
      "САЛАТОВЫЙ",
      "САЛАТОВЫЙ/СЕРЫЙ",
      "СВЕТЛО-БИРЮЗОВЫЙ/БЕЛЫЙ",
      "СВЕТЛО-КОРИЧНЕВЫЙ/ТЕМНО-БЕЖЕВЫЙ",
      "СВЕТЛО-БЕЖЕВЫЙ",
      "СЕРЕБРЯНЫЙ",
      "СЕРО-ГОЛУБОЙ",
      "СЕРО-ЗЕЛЕНАЯ",
      "СЕРЫЙ",
      "СЕРАЯ",
      "СЕРАЯ С СИНИМ",
      "СЕРАЯ С КРАСН",
      "СЕРОЕ",
      "СЕРЫЙ/БЕЖЕВЫЙ",
      "СЕРЫЙ/БИРЮЗОВЫЙ",
      "СЕРЫЙ/БОРДО",
      "СЕРЫЙ/ГОЛУБОЙ",
      "СЕРЫЙ/ЗЕЛЕНЫЙ",
      "СЕРЫЙ/КОРИЧНЕВЫЙ",
      "СЕРЫЙ/КРАСНЫЙ",
      "СЕРЫЙ/ОЛИВКОВЫЙ",
      "СЕРЫЙ/ПОЛОСКИ",
      "СЕРЫЙ/РОЗОВЫЙ",
      "СЕРЫЙ/СИНИЙ",
      "СЕРЫЙ/ТЕМНО-БЕЖЕВЫЙ",
      "СЕРЫЙ/ЧЕРНЫЙ",
      "СИНИЙ",
      "СИНЯЯ",
      "СИНЕЕ",
      "СИНЯЯ С БЕЛЫМ",
      "СИНЕ-ГОЛУБАЯ",
      "СИНИЙ/БЕЖЕВЫЙ",
      "СИНИЙ/ВАСИЛЬКОВЫЙ",
      "СИНИЙ/ГОЛУБОЙ",
      "СИНИЙ/ПОЛОСКИ",
      "СИНИЙ/СВЕТЛО СЕРЫЙ",
      "СИНИЙ/СВЕТЛО-СЕРЫЙ",
      "СИНИЙ/СЕРЫЙ",
      "СИНИЙ/ЧЕРНЫЙ",
      "СИРЕНЕВЫЙ",
      "СИРЕНЕВАЯ",
      "СИРЕНЕВОЕ",
      "СЛОНОВАЯ КОСТЬ/ТЕМНО-СЕРЫЙ",
      "СТАЛЬНОЙ",
      "ТЕМНО-БЕЖЕВЫЙ",
      "ТЕМНО-БЕЖЕВЫЙ/КРАСНЫЙ",
      "ТЕМНО-БЕЖЕВЫЙ/ФИОЛЕТОВЫЙ",
      "ТЕМНО-КОРИЧНЕВЫЙ/КОРИЧНЕВЫЙ/БЕЖЕВЫЙ",
      "ТЕМНО-СЕРЫЙ",
      "ТЕМНО-СЕРЫЙ/БЕЖЕВЫЙ",
      "ТЕМНО-СИНИЙ",
      "ТЕМНО-СИНИЙ/БЕЖЕВЫЙ",
      "ТЕМНО-СИНИЙ/БИРЮЗОВЫЙ",
      "ТЕМНО-СИНИЙ/ГОЛУБОЙ",
      "УГОЛЬНЫЙ ДЖИНС",
      "ФИОЛЕТОВЫЙ",
      "ФИОЛЕТОВЫЙ/СЕРЫЙ",
      "ХАКИ",
      "ЧЁРНЫЙ/СЕРЫЕ ПОЛОСЫ/ЗЕБРА",
      "ЧЕРНОЕ/ПОЛОСКИ",
      "ЧЕРНЫЙ",
      "ЧЕРНАЯ",
      "ЧЕРНОЕ",
      "ЧЕРНЫЙ/БИРЮЗА",
      "ЧЕРНЫЙ/ЖЕЛТЫЙ",
      "ЧЕРНЫЙ/КЛЕТКА",
      "ЧЕРНЫЙ/КРАСНАЯ ПОЛОСА",
      "ЧЕРНЫЙ/КРАСНЫЙ",
      "ЧЕРНЫЙ/ОРАНЖЕВЫЙ",
      "ЧЕРНЫЙ/РОЗОВЫЙ",
      "ЧЕРНЫЙ/СЕРЫЙ",
      "ЧЕРНЫЙ/СИНИЙ",
      "ЧЕРНЫЙ/ТЕМНО-СЕРЫЙ",
      "ЧЕРНЫЙ/ЧЕРНО-БЕЛЫЕ ПОЛОСЫ",
      "ЧЕРНЫЙ/ЧЕРНЫЙ МЕХ"
    ]
  },
  "Кол-во шт": {
    "PRECHECK": "ШТ",
    "RE": [
      "ШТ\\. \\d{1,3}",
      "\\d{1,3}",
      "\\d{1,3} ШТ\\.",
      "\\d{1,3}",
      "\\d{1,3} ШТУК",
      "\\d{1,3}",
      "\\d{1,3}\\s?ШТ",
      "\\d{1,3}"
    ]
  },
  "Размер": {
    "PRECHECK": "РАЗМЕР:",
    "RE": [
      "РАЗМЕР:\\s?\\d{1,3}",
      "\\d{1,3}"
    ]
  }
}